…
table1
#> # A tibble: 6 × 4
#>   country      year  cases population
#>   <chr>       <int>  <int>      <int>
#> 1 Afghanistan  1999    745   19987071
#> 2 Afghanistan  2000   2666   20595360
#> 3 Brazil       1999  37737  172006362
#> 4 Brazil       2000  80488  174504898
#> 5 China        1999 212258 1272915272
#> 6 China        2000 213766 1280428583
table2
#> # A tibble: 12 × 4
#>   country      year type           count
#>   <chr>       <int> <chr>          <int>
#> 1 Afghanistan  1999 cases            745
#> 2 Afghanistan  1999 population  19987071
#> 3 Afghanistan  2000 cases           2666
#> 4 Afghanistan  2000 population  20595360
#> 5 Brazil       1999 cases          37737
#> 6 Brazil       1999 population 172006362
#> # ... with 6 more rows
…
table 2= a single measurement for a given country-year. Columns: name of the country, year of observation, type of measurement (cases or population), value of the measurement.

table 3= a country-year combination. Columns: name of the country, year of observation, rate of TB cases per population (as a string).

calculating the rate= (cases/population)*10000
table 2: requires reshaping from long to wide before calculating
steps: extract number of TB cases, extract the matching population, bring them together, calculate rate, store result
table 3: requires separating the rate column into cases and population before calculating

```{r}
billboard
#> # A tibble: 317 × 79
#>   artist       track               date.entered   wk1   wk2   wk3   wk4   wk5
#>   <chr>        <chr>               <date>       <dbl> <dbl> <dbl> <dbl> <dbl>
#> 1 2 Pac        Baby Don't Cry (Ke... 2000-02-26      87    82    72    77    87
#> 2 2Ge+her      The Hardest Part O... 2000-09-02      91    87    92    NA    NA
#> 3 3 Doors Down Kryptonite          2000-04-08      81    70    68    67    66
#> 4 3 Doors Down Loser               2000-10-21      76    76    72    69    67
#> 5 504 Boyz     Wobble Wobble       2000-04-15      57    34    25    17    17
#> 6 98^0         Give Me Just One N... 2000-08-19      51    39    34    26    26
#> # ℹ 311 more rows
#> # ℹ 71 more variables: wk6 <dbl>, wk7 <dbl>, wk8 <dbl>, wk9 <dbl>, ...


```
```{r}
billboard |> 
  pivot_longer(
    cols = starts_with("wk"), 
    names_to = "week", 
    values_to = "rank",
    values_drop_na = TRUE
  )
#> # A tibble: 5,307 × 5
#>   artist track                   date.entered week   rank
#>   <chr>  <chr>                   <date>       <chr> <dbl>
#> 1 2 Pac  Baby Don't Cry (Keep... 2000-02-26   wk1      87
#> 2 2 Pac  Baby Don't Cry (Keep... 2000-02-26   wk2      82
#> 3 2 Pac  Baby Don't Cry (Keep... 2000-02-26   wk3      72
#> 4 2 Pac  Baby Don't Cry (Keep... 2000-02-26   wk4      77
#> 5 2 Pac  Baby Don't Cry (Keep... 2000-02-26   wk5      87
#> 6 2 Pac  Baby Don't Cry (Keep... 2000-02-26   wk6      94
#> # ℹ 5,301 more rows
…
weather %>% 
  count(year, month, day, hour, origin) %>% 
  filter(n > 1)
#> # A tibble: 3 × 6
#>    year month   day  hour origin     n
#>   <int> <int> <int> <int> <chr>  <int>
#> 1  2013    11     3     1 EWR        2
#> 2  2013    11     3     1 JFK        2
#> 3  2013    11     3     1 LGA        2
flights %>% 
  count(year, month, day, flight) %>% 
  filter(n > 1)
#> # A tibble: 29,768 × 5
#>    year month   day flight     n
#>   <int> <int> <int>  <int> <int>
#> 1  2013     1     1      1     2
#> 2  2013     1     1      3     2
#> 3  2013     1     1      4     2
#> 4  2013     1     1     11     3
#> 5  2013     1     1     15     2
#> 6  2013     1     1     21     2
#> # ... with 29,762 more rows
…
